{
  "extends": ["tslint:latest", "tslint-config-prettier"],
  "rulesDirectory": ["tslint-plugin-prettier"],
  "rules": {
    "prettier": true,
    "new-parens": true,
    "no-arg": true,
    "no-bitwise": true,
    "no-conditional-assignment": true,
    "no-consecutive-blank-lines": false,
    "indent": [true, "spaces", 2],
    "no-console": {
      "severity": "warning",
      "options": ["debug", "info", "log", "time", "timeEnd", "trace"]
    },
    "object-literal-sort-keys": false,
    "ordered-imports": false
  }
}
